CODE  NAME                TOTAL INCOME
CHB   Chanthaburi         $41,684,030.73
CHN   Chonburi            $37,286,693.18
RYG   Rayong              $36,381,972.78
TRA   Trat                $39,143,696.47
PKN   Prachinburi         $35,739,510.79
SNK   Sa Kaeo             $34,174,401.13
